start,end,avg_zscore_deltaSVM_deltaDNN_deltaProteinBERT_pvalue
2,21,0.048271604577102396
4,23,0.04792210160578005
10,29,0.04766508616061096
11,30,0.04667421043480369
16,35,0.04334449940588052
17,36,0.047920688290049154
18,37,0.04099756575544871
19,38,0.03738909226433205
20,39,0.029246335463567637
21,40,0.04193156869167536
