start,end,avg_zscore_deltaSVM_deltaDNN_deltaProteinBERT_pvalue
378,397,0.039367300595711294
379,398,0.03847437674883397
380,399,0.03641930804507706
915,934,0.041852322966496235
916,935,0.04075223133567571
917,936,0.039783915407917904
918,937,0.041643541878717154
919,938,0.04292645363923831
920,939,0.03955018599495882
921,940,0.04531229387449086
923,942,0.040171541810888445
924,943,0.0427587190553393
925,944,0.04235144928713532
926,945,0.04217102940321791
