start,end,avg_zscore_deltaSVM_deltaDNN_deltaProteinBERT_pvalue
26,45,0.030972812292808332
27,46,0.029767953561638544
29,48,0.01471766954126067
30,49,0.027870764700272936
31,50,0.00532109553002155
32,51,0.002973299321390213
33,52,0.0011516284466560809
34,53,0.0015643165323995858
35,54,0.020658276580478207
36,55,0.031923625873200336
37,56,0.0392601324341768
38,57,0.008794404186613357
39,58,0.015288468058211716
40,59,0.02688757853326805
41,60,0.03243208131351781
43,62,0.04415266813630925
44,63,0.021515644702863095
45,64,0.04283199120467854
129,148,0.0494488811894295
