start,end,min_of_avg_zscore_deltaSVM_deltaDNN_deltaProteinBERT_pvalues
99.0,142.0,0.0037589174494469346
243.0,287.0,3.770992363851693e-09
365.0,411.0,3.770992363851693e-09
485.0,515.0,3.770992363851693e-09
581.0,610.0,3.770992363851693e-09
737.0,762.0,3.770992363851693e-09
871.0,897.0,3.770992363851693e-09
