start,end,avg_zscore_deltaSVM_deltaDNN_deltaProteinBERT_pvalue
181,200,0.04015653049758202
182,201,0.00766929777847156
183,202,0.0012885777556001074
184,203,0.0026319463221490804
185,204,0.0008294473329817621
186,205,0.0005304343432088898
187,206,0.0005111727701104397
188,207,0.003218370817291777
189,208,0.0014172072003048439
190,209,0.0008622283754864384
191,210,0.0007837389599056524
192,211,0.001330454478217523
193,212,0.001313077153897073
194,213,0.0012263434461731086
195,214,0.0012667460276828873
196,215,0.0009807892610509833
197,216,0.0005574497690593347
198,217,0.0004261354675660092
199,218,0.0007428848479101135
200,219,0.0015089296624576703
201,220,0.00594993721314768
202,221,0.00494579963544824
500,519,0.02125161153486755
501,520,0.02039950404644375
502,521,0.01186051539380799
503,522,0.02351014030452694
504,523,0.02400053500136803
505,524,0.027845724402388996
506,525,0.022000997231313057
507,526,0.04437481946768719
508,527,0.04956783830352335
510,529,0.04925844923011954
540,559,0.044174263559593925
543,562,0.017685198987106708
544,563,0.04068135200949275
545,564,0.037641658465523954
546,565,0.03954070505722394
547,566,0.04191875917442764
548,567,0.013048951207321196
549,568,0.01371828403818397
550,569,0.013188089787848833
551,570,0.046755720198490745
552,571,0.046346936502967534
554,573,0.04514986170104462
556,575,0.04467371361244997
