start,end,avg_zscore_deltaSVM_deltaDNN_deltaProteinBERT_pvalue
0,19,0.03730676902683373
1,20,0.035530174595333905
2,21,0.03738947926651665
3,22,0.0407037733110701
4,23,0.03540435742165122
5,24,0.04535977328278717
44,63,0.04959156937132623
55,74,0.04742306873796526
56,75,0.032427260168027494
57,76,0.03520818942272842
58,77,0.03255442783330487
59,78,0.02136082157455711
60,79,0.01952368068207332
61,80,0.01678308086983874
62,81,0.015362618421591138
63,82,0.018672191273319854
180,199,0.029115257368737626
181,200,0.03508857375491315
182,201,0.04587735487032654
183,202,0.0248656949588768
184,203,0.02443559607813104
185,204,0.03379915850453356
186,205,0.025310796001155548
187,206,0.042489379697697484
188,207,0.02319396245097306
189,208,0.009602580969320111
190,209,0.007478047968959494
191,210,0.00479733570317533
192,211,0.007091824541103515
193,212,0.0003844535133429766
194,213,0.00022751246646022827
195,214,0.0001630489042821104
196,215,0.0001258549493700834
197,216,0.0001301073937798098
198,217,2.3127402516364448e-05
199,218,1.534798278036238e-05
200,219,9.636061082622606e-05
201,220,0.00015730638736038795
202,221,0.0013362309347903292
203,222,0.0012330905528681831
204,223,0.0010893960274728017
205,224,0.0009964470549004055
206,225,0.0013730256080543468
207,226,0.0023277377884086056
208,227,0.0031480423744983544
209,228,0.0014283557322432262
210,229,0.0018262720184209996
211,230,0.0027849424062212124
212,231,0.004201738056550593
213,232,0.006977055732284277
214,233,0.01400347316292324
220,239,0.0469716123489549
240,259,0.011963834423112402
241,260,0.008179935011143969
242,261,0.023954413539257886
243,262,0.03390129054430752
244,263,0.021576533349561458
245,264,0.025239213930079534
246,265,0.022574412414700235
247,266,0.02703529965960144
248,267,0.016189237908206214
249,268,0.0099592356807315
250,269,0.007400538170586248
251,270,0.0049882727473433966
252,271,0.0036262670533808643
253,272,0.0036102066341922685
255,274,0.02859329628527752
256,275,0.0074059963684108615
261,280,0.022552221318403672
