start,end,avg_zscore_deltaSVM_deltaDNN_deltaProteinBERT_pvalue
331,350,0.03172644912588233
332,351,0.032599338013935115
339,358,0.03570117652762091
340,359,0.023422598368573258
341,360,0.021112396147678143
342,361,0.029784806473357763
343,362,0.0226338162833176
344,363,0.019280196331795556
345,364,0.024483226851399715
346,365,0.021222382597867177
347,366,0.016563343526326248
350,369,0.016150439004185488
