start,end,avg_zscore_deltaSVM_deltaDNN_deltaProteinBERT_pvalue
0,19,1.5208809401094181e-07
1,20,5.937888193950773e-07
2,21,3.1730813798351785e-08
3,22,2.6312958276252935e-08
4,23,8.820141360160536e-08
5,24,6.185966521858623e-09
6,25,7.11620759432452e-09
7,26,2.3523624593299383e-09
8,27,3.0006802005155746e-06
9,28,3.4169094390274154e-09
10,29,1.8084454475078677e-09
11,30,1.203811197862831e-09
12,31,4.2867120163666416e-10
13,32,1.1194187828655422e-10
14,33,6.279608633246465e-11
15,34,9.183018692502419e-11
16,35,1.2579105599973069e-05
17,36,3.824047727628237e-06
18,37,0.00013455780051349397
19,38,0.0024098665091766168
20,39,0.002223029700252479
21,40,0.0019501873409543498
22,41,0.002948628740916735
23,42,0.0029792698576789262
24,43,0.026512835488252045
