start,end,avg_zscore_deltaSVM_deltaDNN_deltaProteinBERT_pvalue
217,236,0.024124880188466
218,237,0.033179575911075176
219,238,0.005765165078807859
220,239,0.0008459356542831381
221,240,0.00025329288809575667
222,241,0.00021551540143647244
223,242,0.0001759272628305992
224,243,0.0001843316886153896
225,244,0.0001090538381920071
226,245,0.0001497252445425951
227,246,0.0002649985475948228
228,247,0.0016900444802486164
229,248,0.002128755249984601
230,249,0.008360891515710482
231,250,2.6802064689998365e-05
232,251,2.6764638236955e-05
233,252,2.720984037190395e-05
234,253,1.0543062839121893e-06
235,254,1.0215713605666606e-06
236,255,1.0351251507261506e-06
237,256,1.697985295711936e-06
238,257,4.094418729981688e-06
239,258,0.0004923842368008529
240,259,4.9096683403725366e-05
241,260,0.00467287318773673
242,261,0.01059644778343252
243,262,0.016045696520362328
244,263,0.0189060817283478
245,264,0.024760438701199986
246,265,0.013102454128028383
247,266,0.010528533961119607
248,267,0.010674032027093607
249,268,0.010652620560110395
250,269,0.010667413047619761
251,270,0.010657317330791314
261,280,0.0015656455086087064
262,281,0.0015488881494698215
263,282,0.001562469470022941
264,283,0.0015662432550397325
265,284,0.0015844884338299932
266,285,0.0015925105181363987
267,286,0.0015827163712503274
268,287,0.002785058511158418
269,288,0.002773701626572552
270,289,0.0027477476896893786
271,290,0.002737490511154212
272,291,0.0027632780189177893
273,292,0.0009608400590806436
274,293,0.00024575470328675483
275,294,0.00023834630957258494
276,295,4.212163590900219e-05
277,296,0.000110210704132815
278,297,0.00011014543074000211
279,298,0.009579974200348229
280,299,0.00930351142125917
281,300,0.009160284161130435
282,301,0.009107215875578712
287,306,0.04088027347430822
288,307,0.04043419363324005
289,308,0.04052727508114755
290,309,0.040447702805727064
291,310,0.04038352640044363
292,311,0.040157171602395667
293,312,0.039942809707705515
294,313,0.040081129342178966
349,368,0.018079813379763738
350,369,0.01771104656045225
351,370,0.017517628375965245
352,371,0.017528813500976785
