start,end,avg_zscore_deltaSVM_deltaDNN_deltaProteinBERT_pvalue
157,176,0.04107082624038673
163,182,0.043505273767297854
164,183,0.049806579698940194
165,184,0.041200896704964976
174,193,0.04257419519111329
175,194,0.033382996563868124
301,320,0.04858839388544884
303,322,0.022932034940498624
304,323,0.01900298692327139
305,324,0.01701383525220755
306,325,0.029673613456954632
307,326,0.017065748074368833
308,327,0.028342153219102485
309,328,0.02194354393692538
310,329,0.022075131349746483
350,369,0.03834323275020418
351,370,0.03938404503711573
352,371,0.04233447639452616
358,377,0.012675737721007371
359,378,0.01617468924005172
360,379,0.01610414887413325
472,491,0.04309922438948832
473,492,0.04984582539805155
474,493,0.033303279690438246
483,502,0.03341001638009891
484,503,0.028949099748424443
485,504,0.045766311968524466
538,557,0.048781454431144296
539,558,0.0486418299464023
622,641,0.03149444549599589
628,647,0.03340097732858714
629,648,0.038055606144686324
630,649,0.04302540474588952
763,782,0.03081761511218399
764,783,0.006988763834148094
765,784,0.009040184358738908
766,785,1.0078760025866013e-05
767,786,0.0010732382445592682
768,787,0.0022110268494846784
769,788,5.300645703080322e-05
770,789,9.518245650489749e-08
771,790,1.1757135588868522e-07
772,791,2.8126475705575315e-07
773,792,1.1009056215890395e-06
774,793,1.7833396329289636e-07
775,794,1.473690052330569e-07
776,795,9.754611401996252e-07
777,796,8.356615208695595e-07
778,797,8.442618287594631e-05
779,798,1.6395930875472904e-05
780,799,0.000553449796815892
781,800,8.175192184740204e-05
782,801,0.002586633308023527
783,802,0.0008518538664385781
784,803,0.00037178505003567414
785,804,0.0003907554308932629
786,805,0.008180202242389125
787,806,0.001919639542276118
788,807,0.0012373358009182638
789,808,0.0009912424318188424
829,848,0.03261588193830887
830,849,0.023438610452417324
831,850,0.028375065771923072
832,851,0.030048656939183804
833,852,0.02341736102686895
834,853,0.012451206727491093
835,854,0.015673242468145776
836,855,0.019425802770545984
837,856,0.021382797127504773
839,858,0.019029668392859765
840,859,0.024573845742835665
841,860,0.01641700658508312
842,861,0.02704565001215257
843,862,0.0197537264606701
844,863,0.02274142034557005
845,864,0.026540269259378184
846,865,0.022432814258144144
847,866,0.028831799796396915
848,867,0.027909933881021334
849,868,0.02616463001329748
880,899,0.04673397485988961
882,901,0.04183693813912065
883,902,0.04158634047461493
884,903,0.04560915362679726
885,904,0.03274150871507448
886,905,0.026413148827127315
887,906,0.03580512094060655
888,907,0.02904863790875353
890,909,0.04125728005578598
891,910,0.033099949090942465
892,911,0.047751220115071796
