start,end,avg_zscore_deltaSVM_deltaDNN_deltaProteinBERT_pvalue
75,94,0.042361499796979694
76,95,0.0318280668997936
77,96,0.021108900310654308
78,97,0.024463835996171444
82,101,0.044718659538474134
85,104,0.035465074752278385
87,106,0.014362223323905842
88,107,0.030256218235967546
