start,end,min_of_avg_zscore_deltaSVM_deltaDNN_deltaProteinBERT_pvalues
13.0,57.0,0.0001604498608266926
361.0,382.0,0.0001604498608266926
556.0,582.0,0.0001604498608266926
753.0,796.0,0.0001604498608266926
990.0,1009.0,0.0001604498608266926
1096.0,1136.0,3.481833962786099e-08
