#Chain_ID	ResNum_ResIcode	Propensity
A	15	0.02380
A	16	0.08087
A	17	0.19126
A	18	0.04729
A	19	0.01766
A	20	0.07224
A	21	0.01625
A	22	0.03593
A	23	0.01098
A	24	0.05821
A	25	0.00518
A	26	0.03294
A	27	0.03983
A	28	0.01162
A	29	0.02410
A	30	0.08587
A	31	0.02120
A	32	0.04175
A	33	0.00423
A	34	0.02311
A	39	0.00806
A	40	0.00695
A	41	0.00832
A	42	0.00725
A	43	0.00660
A	44	0.00467
A	45	0.02078
A	46	0.01689
A	47	0.01133
A	48	0.01555
A	49	0.03579
A	50	0.09918
A	51	0.04614
A	52	0.02809
A	53	0.02126
A	54	0.10043
A	55	0.00665
A	56	0.01395
A	57	0.00349
A	58	0.00380
A	59	0.00602
A	60	0.00912
A	61	0.00823
A	62	0.00372
A	63	0.01232
A	64	0.00535
A	65	0.06397
A	66	0.02947
A	67	0.04645
A	68	0.00704
A	69	0.01177
A	70	0.00913
A	71	0.00657
A	72	0.00610
A	73	0.08874
A	74	0.01440
A	75	0.08919
A	76	0.02971
A	77	0.03059
A	78	0.04621
A	79	0.00614
A	80	0.02233
A	81	0.00480
A	82	0.00704
A	83	0.00130
A	84	0.00549
A	85	0.00385
A	86	0.02231
A	87	0.00781
A	88	0.05544
A	89	0.01273
A	90	0.00867
A	91	0.01782
A	92	0.05447
A	93	0.02921
A	94	0.00547
A	95	0.01401
A	96	0.00192
A	97	0.01314
A	98	0.00719
A	99	0.00495
A	100	0.00449
A	101	0.04241
A	102	0.01395
A	103	0.09846
A	104	0.00724
A	105	0.03135
A	106	0.02303
A	107	0.01699
A	108	0.02594
A	109	0.02003
A	110	0.40279
A	111	0.02627
A	112	0.12225
A	113	0.08085
A	114	0.01792
A	115	0.02328
A	116	0.00372
A	117	0.00251
A	118	0.00789
